{
    "dates": {
      "maximum": "2021-05-23",
      "minimum": "2021-04-05"
    },
    "page": 1,
    "results": [
      {
        "backdrop_path": "/path.jpg",
        "id": 1,
        "overview": "Overview",
        "poster_path": "/path.jpg",
        "name": "Title"
      }
    ],
    "total_pages": 47,
    "total_results": 940
  }